^D:\PORTFOLIOPROJECTS\LIGHTING\GAMESOLUTION\ENGINE\APATHFINDING.CPP
/c /ID:\PORTFOLIOPROJECTS\LIGHTING\GAMESOLUTION\..\NEUMONTTOOLS\INCLUDE /ID:\PORTFOLIOPROJECTS\LIGHTING\GAMESOLUTION\..\ZEXTERNALDEPENDENCIES\GLEW\INCLUDE /ID:\PORTFOLIOPROJECTS\LIGHTING\GAMESOLUTION\..\ZEXTERNALDEPENDENCIES\QT\INCLUDE /ID:\PORTFOLIOPROJECTS\LIGHTING\GAMESOLUTION\..\GAMESOLUTION\CORE\INCLUDE /ZI /nologo /W4 /WX- /Od /Oy- /D ASSERT_OFF /D LOG_ON /D PROFILING_ON /D WIN32 /D _DEBUG /D _WINDOWS /D DEBUG_SHAPES_ON /D _USRDLL /D ENGINE_EXPORTS /D _WINDLL /D _UNICODE /D UNICODE /Gm /EHsc /RTC1 /MDd /GS /fp:precise /Zc:wchar_t /Zc:forScope /Zc:inline /Fo"DEBUG\OBJ\\" /Fd"DEBUG\OBJ\VC140.PDB" /Gd /TP /analyze- D:\PORTFOLIOPROJECTS\LIGHTING\GAMESOLUTION\ENGINE\APATHFINDING.CPP
^D:\PORTFOLIOPROJECTS\LIGHTING\GAMESOLUTION\ENGINE\CAMERA.CPP
/c /ID:\PORTFOLIOPROJECTS\LIGHTING\GAMESOLUTION\..\NEUMONTTOOLS\INCLUDE /ID:\PORTFOLIOPROJECTS\LIGHTING\GAMESOLUTION\..\ZEXTERNALDEPENDENCIES\GLEW\INCLUDE /ID:\PORTFOLIOPROJECTS\LIGHTING\GAMESOLUTION\..\ZEXTERNALDEPENDENCIES\QT\INCLUDE /ID:\PORTFOLIOPROJECTS\LIGHTING\GAMESOLUTION\..\GAMESOLUTION\CORE\INCLUDE /ZI /nologo /W4 /WX- /Od /Oy- /D ASSERT_OFF /D LOG_ON /D PROFILING_ON /D WIN32 /D _DEBUG /D _WINDOWS /D DEBUG_SHAPES_ON /D _USRDLL /D ENGINE_EXPORTS /D _WINDLL /D _UNICODE /D UNICODE /Gm /EHsc /RTC1 /MDd /GS /fp:precise /Zc:wchar_t /Zc:forScope /Zc:inline /Fo"DEBUG\OBJ\\" /Fd"DEBUG\OBJ\VC140.PDB" /Gd /TP /analyze- D:\PORTFOLIOPROJECTS\LIGHTING\GAMESOLUTION\ENGINE\CAMERA.CPP
^D:\PORTFOLIOPROJECTS\LIGHTING\GAMESOLUTION\ENGINE\COLORNESS.CPP
/c /ID:\PORTFOLIOPROJECTS\LIGHTING\GAMESOLUTION\..\NEUMONTTOOLS\INCLUDE /ID:\PORTFOLIOPROJECTS\LIGHTING\GAMESOLUTION\..\ZEXTERNALDEPENDENCIES\GLEW\INCLUDE /ID:\PORTFOLIOPROJECTS\LIGHTING\GAMESOLUTION\..\ZEXTERNALDEPENDENCIES\QT\INCLUDE /ID:\PORTFOLIOPROJECTS\LIGHTING\GAMESOLUTION\..\GAMESOLUTION\CORE\INCLUDE /ZI /nologo /W4 /WX- /Od /Oy- /D ASSERT_OFF /D LOG_ON /D PROFILING_ON /D WIN32 /D _DEBUG /D _WINDOWS /D DEBUG_SHAPES_ON /D _USRDLL /D ENGINE_EXPORTS /D _WINDLL /D _UNICODE /D UNICODE /Gm /EHsc /RTC1 /MDd /GS /fp:precise /Zc:wchar_t /Zc:forScope /Zc:inline /Fo"DEBUG\OBJ\\" /Fd"DEBUG\OBJ\VC140.PDB" /Gd /TP /analyze- D:\PORTFOLIOPROJECTS\LIGHTING\GAMESOLUTION\ENGINE\COLORNESS.CPP
^D:\PORTFOLIOPROJECTS\LIGHTING\GAMESOLUTION\ENGINE\DEBUGMENU.CPP
/c /ID:\PORTFOLIOPROJECTS\LIGHTING\GAMESOLUTION\..\NEUMONTTOOLS\INCLUDE /ID:\PORTFOLIOPROJECTS\LIGHTING\GAMESOLUTION\..\ZEXTERNALDEPENDENCIES\GLEW\INCLUDE /ID:\PORTFOLIOPROJECTS\LIGHTING\GAMESOLUTION\..\ZEXTERNALDEPENDENCIES\QT\INCLUDE /ID:\PORTFOLIOPROJECTS\LIGHTING\GAMESOLUTION\..\GAMESOLUTION\CORE\INCLUDE /ZI /nologo /W4 /WX- /Od /Oy- /D ASSERT_OFF /D LOG_ON /D PROFILING_ON /D WIN32 /D _DEBUG /D _WINDOWS /D DEBUG_SHAPES_ON /D _USRDLL /D ENGINE_EXPORTS /D _WINDLL /D _UNICODE /D UNICODE /Gm /EHsc /RTC1 /MDd /GS /fp:precise /Zc:wchar_t /Zc:forScope /Zc:inline /Fo"DEBUG\OBJ\\" /Fd"DEBUG\OBJ\VC140.PDB" /Gd /TP /analyze- D:\PORTFOLIOPROJECTS\LIGHTING\GAMESOLUTION\ENGINE\DEBUGMENU.CPP
^D:\PORTFOLIOPROJECTS\LIGHTING\GAMESOLUTION\ENGINE\DEBUGSHAPES.CPP
/c /ID:\PORTFOLIOPROJECTS\LIGHTING\GAMESOLUTION\..\NEUMONTTOOLS\INCLUDE /ID:\PORTFOLIOPROJECTS\LIGHTING\GAMESOLUTION\..\ZEXTERNALDEPENDENCIES\GLEW\INCLUDE /ID:\PORTFOLIOPROJECTS\LIGHTING\GAMESOLUTION\..\ZEXTERNALDEPENDENCIES\QT\INCLUDE /ID:\PORTFOLIOPROJECTS\LIGHTING\GAMESOLUTION\..\GAMESOLUTION\CORE\INCLUDE /ZI /nologo /W4 /WX- /Od /Oy- /D ASSERT_OFF /D LOG_ON /D PROFILING_ON /D WIN32 /D _DEBUG /D _WINDOWS /D DEBUG_SHAPES_ON /D _USRDLL /D ENGINE_EXPORTS /D _WINDLL /D _UNICODE /D UNICODE /Gm /EHsc /RTC1 /MDd /GS /fp:precise /Zc:wchar_t /Zc:forScope /Zc:inline /Fo"DEBUG\OBJ\\" /Fd"DEBUG\OBJ\VC140.PDB" /Gd /TP /analyze- D:\PORTFOLIOPROJECTS\LIGHTING\GAMESOLUTION\ENGINE\DEBUGSHAPES.CPP
^D:\PORTFOLIOPROJECTS\LIGHTING\GAMESOLUTION\ENGINE\DEBUG_SLIDER.CPP
/c /ID:\PORTFOLIOPROJECTS\LIGHTING\GAMESOLUTION\..\NEUMONTTOOLS\INCLUDE /ID:\PORTFOLIOPROJECTS\LIGHTING\GAMESOLUTION\..\ZEXTERNALDEPENDENCIES\GLEW\INCLUDE /ID:\PORTFOLIOPROJECTS\LIGHTING\GAMESOLUTION\..\ZEXTERNALDEPENDENCIES\QT\INCLUDE /ID:\PORTFOLIOPROJECTS\LIGHTING\GAMESOLUTION\..\GAMESOLUTION\CORE\INCLUDE /ZI /nologo /W4 /WX- /Od /Oy- /D ASSERT_OFF /D LOG_ON /D PROFILING_ON /D WIN32 /D _DEBUG /D _WINDOWS /D DEBUG_SHAPES_ON /D _USRDLL /D ENGINE_EXPORTS /D _WINDLL /D _UNICODE /D UNICODE /Gm /EHsc /RTC1 /MDd /GS /fp:precise /Zc:wchar_t /Zc:forScope /Zc:inline /Fo"DEBUG\OBJ\\" /Fd"DEBUG\OBJ\VC140.PDB" /Gd /TP /analyze- D:\PORTFOLIOPROJECTS\LIGHTING\GAMESOLUTION\ENGINE\DEBUG_SLIDER.CPP
^D:\PORTFOLIOPROJECTS\LIGHTING\GAMESOLUTION\ENGINE\DEBUG_SLIDER_MOC.CPP
/c /ID:\PORTFOLIOPROJECTS\LIGHTING\GAMESOLUTION\..\NEUMONTTOOLS\INCLUDE /ID:\PORTFOLIOPROJECTS\LIGHTING\GAMESOLUTION\..\ZEXTERNALDEPENDENCIES\GLEW\INCLUDE /ID:\PORTFOLIOPROJECTS\LIGHTING\GAMESOLUTION\..\ZEXTERNALDEPENDENCIES\QT\INCLUDE /ID:\PORTFOLIOPROJECTS\LIGHTING\GAMESOLUTION\..\GAMESOLUTION\CORE\INCLUDE /ZI /nologo /W4 /WX- /Od /Oy- /D ASSERT_OFF /D LOG_ON /D PROFILING_ON /D WIN32 /D _DEBUG /D _WINDOWS /D DEBUG_SHAPES_ON /D _USRDLL /D ENGINE_EXPORTS /D _WINDLL /D _UNICODE /D UNICODE /Gm /EHsc /RTC1 /MDd /GS /fp:precise /Zc:wchar_t /Zc:forScope /Zc:inline /Fo"DEBUG\OBJ\\" /Fd"DEBUG\OBJ\VC140.PDB" /Gd /TP /analyze- D:\PORTFOLIOPROJECTS\LIGHTING\GAMESOLUTION\ENGINE\DEBUG_SLIDER_MOC.CPP
^D:\PORTFOLIOPROJECTS\LIGHTING\GAMESOLUTION\ENGINE\DLLMAIN.CPP
/c /ID:\PORTFOLIOPROJECTS\LIGHTING\GAMESOLUTION\..\NEUMONTTOOLS\INCLUDE /ID:\PORTFOLIOPROJECTS\LIGHTING\GAMESOLUTION\..\ZEXTERNALDEPENDENCIES\GLEW\INCLUDE /ID:\PORTFOLIOPROJECTS\LIGHTING\GAMESOLUTION\..\ZEXTERNALDEPENDENCIES\QT\INCLUDE /ID:\PORTFOLIOPROJECTS\LIGHTING\GAMESOLUTION\..\GAMESOLUTION\CORE\INCLUDE /ZI /nologo /W4 /WX- /Od /Oy- /D ASSERT_OFF /D LOG_ON /D PROFILING_ON /D WIN32 /D _DEBUG /D _WINDOWS /D DEBUG_SHAPES_ON /D _USRDLL /D ENGINE_EXPORTS /D _WINDLL /D _UNICODE /D UNICODE /Gm /EHsc /RTC1 /MDd /GS /fp:precise /Zc:wchar_t /Zc:forScope /Zc:inline /Fo"DEBUG\OBJ\\" /Fd"DEBUG\OBJ\VC140.PDB" /Gd /TP /analyze- D:\PORTFOLIOPROJECTS\LIGHTING\GAMESOLUTION\ENGINE\DLLMAIN.CPP
^D:\PORTFOLIOPROJECTS\LIGHTING\GAMESOLUTION\ENGINE\ENGINE.CPP
/c /ID:\PORTFOLIOPROJECTS\LIGHTING\GAMESOLUTION\..\NEUMONTTOOLS\INCLUDE /ID:\PORTFOLIOPROJECTS\LIGHTING\GAMESOLUTION\..\ZEXTERNALDEPENDENCIES\GLEW\INCLUDE /ID:\PORTFOLIOPROJECTS\LIGHTING\GAMESOLUTION\..\ZEXTERNALDEPENDENCIES\QT\INCLUDE /ID:\PORTFOLIOPROJECTS\LIGHTING\GAMESOLUTION\..\GAMESOLUTION\CORE\INCLUDE /ZI /nologo /W4 /WX- /Od /Oy- /D ASSERT_OFF /D LOG_ON /D PROFILING_ON /D WIN32 /D _DEBUG /D _WINDOWS /D DEBUG_SHAPES_ON /D _USRDLL /D ENGINE_EXPORTS /D _WINDLL /D _UNICODE /D UNICODE /Gm /EHsc /RTC1 /MDd /GS /fp:precise /Zc:wchar_t /Zc:forScope /Zc:inline /Fo"DEBUG\OBJ\\" /Fd"DEBUG\OBJ\VC140.PDB" /Gd /TP /analyze- D:\PORTFOLIOPROJECTS\LIGHTING\GAMESOLUTION\ENGINE\ENGINE.CPP
^D:\PORTFOLIOPROJECTS\LIGHTING\GAMESOLUTION\ENGINE\GENERALWINDOWS.CPP
/c /ID:\PORTFOLIOPROJECTS\LIGHTING\GAMESOLUTION\..\NEUMONTTOOLS\INCLUDE /ID:\PORTFOLIOPROJECTS\LIGHTING\GAMESOLUTION\..\ZEXTERNALDEPENDENCIES\GLEW\INCLUDE /ID:\PORTFOLIOPROJECTS\LIGHTING\GAMESOLUTION\..\ZEXTERNALDEPENDENCIES\QT\INCLUDE /ID:\PORTFOLIOPROJECTS\LIGHTING\GAMESOLUTION\..\GAMESOLUTION\CORE\INCLUDE /ZI /nologo /W4 /WX- /Od /Oy- /D ASSERT_OFF /D LOG_ON /D PROFILING_ON /D WIN32 /D _DEBUG /D _WINDOWS /D DEBUG_SHAPES_ON /D _USRDLL /D ENGINE_EXPORTS /D _WINDLL /D _UNICODE /D UNICODE /Gm /EHsc /RTC1 /MDd /GS /fp:precise /Zc:wchar_t /Zc:forScope /Zc:inline /Fo"DEBUG\OBJ\\" /Fd"DEBUG\OBJ\VC140.PDB" /Gd /TP /analyze- D:\PORTFOLIOPROJECTS\LIGHTING\GAMESOLUTION\ENGINE\GENERALWINDOWS.CPP
^D:\PORTFOLIOPROJECTS\LIGHTING\GAMESOLUTION\ENGINE\GLM\DETAIL\DUMMY.CPP
/c /ID:\PORTFOLIOPROJECTS\LIGHTING\GAMESOLUTION\..\NEUMONTTOOLS\INCLUDE /ID:\PORTFOLIOPROJECTS\LIGHTING\GAMESOLUTION\..\ZEXTERNALDEPENDENCIES\GLEW\INCLUDE /ID:\PORTFOLIOPROJECTS\LIGHTING\GAMESOLUTION\..\ZEXTERNALDEPENDENCIES\QT\INCLUDE /ID:\PORTFOLIOPROJECTS\LIGHTING\GAMESOLUTION\..\GAMESOLUTION\CORE\INCLUDE /ZI /nologo /W4 /WX- /Od /Oy- /D ASSERT_OFF /D LOG_ON /D PROFILING_ON /D WIN32 /D _DEBUG /D _WINDOWS /D DEBUG_SHAPES_ON /D _USRDLL /D ENGINE_EXPORTS /D _WINDLL /D _UNICODE /D UNICODE /Gm /EHsc /RTC1 /MDd /GS /fp:precise /Zc:wchar_t /Zc:forScope /Zc:inline /Fo"DEBUG\OBJ\\" /Fd"DEBUG\OBJ\VC140.PDB" /Gd /TP /analyze- D:\PORTFOLIOPROJECTS\LIGHTING\GAMESOLUTION\ENGINE\GLM\DETAIL\DUMMY.CPP
^D:\PORTFOLIOPROJECTS\LIGHTING\GAMESOLUTION\ENGINE\GLM\DETAIL\GLM.CPP
/c /ID:\PORTFOLIOPROJECTS\LIGHTING\GAMESOLUTION\..\NEUMONTTOOLS\INCLUDE /ID:\PORTFOLIOPROJECTS\LIGHTING\GAMESOLUTION\..\ZEXTERNALDEPENDENCIES\GLEW\INCLUDE /ID:\PORTFOLIOPROJECTS\LIGHTING\GAMESOLUTION\..\ZEXTERNALDEPENDENCIES\QT\INCLUDE /ID:\PORTFOLIOPROJECTS\LIGHTING\GAMESOLUTION\..\GAMESOLUTION\CORE\INCLUDE /ZI /nologo /W4 /WX- /Od /Oy- /D ASSERT_OFF /D LOG_ON /D PROFILING_ON /D WIN32 /D _DEBUG /D _WINDOWS /D DEBUG_SHAPES_ON /D _USRDLL /D ENGINE_EXPORTS /D _WINDLL /D _UNICODE /D UNICODE /Gm /EHsc /RTC1 /MDd /GS /fp:precise /Zc:wchar_t /Zc:forScope /Zc:inline /Fo"DEBUG\OBJ\\" /Fd"DEBUG\OBJ\VC140.PDB" /Gd /TP /analyze- D:\PORTFOLIOPROJECTS\LIGHTING\GAMESOLUTION\ENGINE\GLM\DETAIL\GLM.CPP
^D:\PORTFOLIOPROJECTS\LIGHTING\GAMESOLUTION\ENGINE\LOGGER.CPP
/c /ID:\PORTFOLIOPROJECTS\LIGHTING\GAMESOLUTION\..\NEUMONTTOOLS\INCLUDE /ID:\PORTFOLIOPROJECTS\LIGHTING\GAMESOLUTION\..\ZEXTERNALDEPENDENCIES\GLEW\INCLUDE /ID:\PORTFOLIOPROJECTS\LIGHTING\GAMESOLUTION\..\ZEXTERNALDEPENDENCIES\QT\INCLUDE /ID:\PORTFOLIOPROJECTS\LIGHTING\GAMESOLUTION\..\GAMESOLUTION\CORE\INCLUDE /ZI /nologo /W4 /WX- /Od /Oy- /D ASSERT_OFF /D LOG_ON /D PROFILING_ON /D WIN32 /D _DEBUG /D _WINDOWS /D DEBUG_SHAPES_ON /D _USRDLL /D ENGINE_EXPORTS /D _WINDLL /D _UNICODE /D UNICODE /Gm /EHsc /RTC1 /MDd /GS /fp:precise /Zc:wchar_t /Zc:forScope /Zc:inline /Fo"DEBUG\OBJ\\" /Fd"DEBUG\OBJ\VC140.PDB" /Gd /TP /analyze- D:\PORTFOLIOPROJECTS\LIGHTING\GAMESOLUTION\ENGINE\LOGGER.CPP
^D:\PORTFOLIOPROJECTS\LIGHTING\GAMESOLUTION\ENGINE\PARTICLE.CPP
/c /ID:\PORTFOLIOPROJECTS\LIGHTING\GAMESOLUTION\..\NEUMONTTOOLS\INCLUDE /ID:\PORTFOLIOPROJECTS\LIGHTING\GAMESOLUTION\..\ZEXTERNALDEPENDENCIES\GLEW\INCLUDE /ID:\PORTFOLIOPROJECTS\LIGHTING\GAMESOLUTION\..\ZEXTERNALDEPENDENCIES\QT\INCLUDE /ID:\PORTFOLIOPROJECTS\LIGHTING\GAMESOLUTION\..\GAMESOLUTION\CORE\INCLUDE /ZI /nologo /W4 /WX- /Od /Oy- /D ASSERT_OFF /D LOG_ON /D PROFILING_ON /D WIN32 /D _DEBUG /D _WINDOWS /D DEBUG_SHAPES_ON /D _USRDLL /D ENGINE_EXPORTS /D _WINDLL /D _UNICODE /D UNICODE /Gm /EHsc /RTC1 /MDd /GS /fp:precise /Zc:wchar_t /Zc:forScope /Zc:inline /Fo"DEBUG\OBJ\\" /Fd"DEBUG\OBJ\VC140.PDB" /Gd /TP /analyze- D:\PORTFOLIOPROJECTS\LIGHTING\GAMESOLUTION\ENGINE\PARTICLE.CPP
^D:\PORTFOLIOPROJECTS\LIGHTING\GAMESOLUTION\ENGINE\PARTICLEFORCEREGISTRY.CPP
/c /ID:\PORTFOLIOPROJECTS\LIGHTING\GAMESOLUTION\..\NEUMONTTOOLS\INCLUDE /ID:\PORTFOLIOPROJECTS\LIGHTING\GAMESOLUTION\..\ZEXTERNALDEPENDENCIES\GLEW\INCLUDE /ID:\PORTFOLIOPROJECTS\LIGHTING\GAMESOLUTION\..\ZEXTERNALDEPENDENCIES\QT\INCLUDE /ID:\PORTFOLIOPROJECTS\LIGHTING\GAMESOLUTION\..\GAMESOLUTION\CORE\INCLUDE /ZI /nologo /W4 /WX- /Od /Oy- /D ASSERT_OFF /D LOG_ON /D PROFILING_ON /D WIN32 /D _DEBUG /D _WINDOWS /D DEBUG_SHAPES_ON /D _USRDLL /D ENGINE_EXPORTS /D _WINDLL /D _UNICODE /D UNICODE /Gm /EHsc /RTC1 /MDd /GS /fp:precise /Zc:wchar_t /Zc:forScope /Zc:inline /Fo"DEBUG\OBJ\\" /Fd"DEBUG\OBJ\VC140.PDB" /Gd /TP /analyze- D:\PORTFOLIOPROJECTS\LIGHTING\GAMESOLUTION\ENGINE\PARTICLEFORCEREGISTRY.CPP
^D:\PORTFOLIOPROJECTS\LIGHTING\GAMESOLUTION\ENGINE\PROFILE.CPP
/c /ID:\PORTFOLIOPROJECTS\LIGHTING\GAMESOLUTION\..\NEUMONTTOOLS\INCLUDE /ID:\PORTFOLIOPROJECTS\LIGHTING\GAMESOLUTION\..\ZEXTERNALDEPENDENCIES\GLEW\INCLUDE /ID:\PORTFOLIOPROJECTS\LIGHTING\GAMESOLUTION\..\ZEXTERNALDEPENDENCIES\QT\INCLUDE /ID:\PORTFOLIOPROJECTS\LIGHTING\GAMESOLUTION\..\GAMESOLUTION\CORE\INCLUDE /ZI /nologo /W4 /WX- /Od /Oy- /D ASSERT_OFF /D LOG_ON /D PROFILING_ON /D WIN32 /D _DEBUG /D _WINDOWS /D DEBUG_SHAPES_ON /D _USRDLL /D ENGINE_EXPORTS /D _WINDLL /D _UNICODE /D UNICODE /Gm /EHsc /RTC1 /MDd /GS /fp:precise /Zc:wchar_t /Zc:forScope /Zc:inline /Fo"DEBUG\OBJ\\" /Fd"DEBUG\OBJ\VC140.PDB" /Gd /TP /analyze- D:\PORTFOLIOPROJECTS\LIGHTING\GAMESOLUTION\ENGINE\PROFILE.CPP
^D:\PORTFOLIOPROJECTS\LIGHTING\GAMESOLUTION\ENGINE\PROFILER.CPP
/c /ID:\PORTFOLIOPROJECTS\LIGHTING\GAMESOLUTION\..\NEUMONTTOOLS\INCLUDE /ID:\PORTFOLIOPROJECTS\LIGHTING\GAMESOLUTION\..\ZEXTERNALDEPENDENCIES\GLEW\INCLUDE /ID:\PORTFOLIOPROJECTS\LIGHTING\GAMESOLUTION\..\ZEXTERNALDEPENDENCIES\QT\INCLUDE /ID:\PORTFOLIOPROJECTS\LIGHTING\GAMESOLUTION\..\GAMESOLUTION\CORE\INCLUDE /ZI /nologo /W4 /WX- /Od /Oy- /D ASSERT_OFF /D LOG_ON /D PROFILING_ON /D WIN32 /D _DEBUG /D _WINDOWS /D DEBUG_SHAPES_ON /D _USRDLL /D ENGINE_EXPORTS /D _WINDLL /D _UNICODE /D UNICODE /Gm /EHsc /RTC1 /MDd /GS /fp:precise /Zc:wchar_t /Zc:forScope /Zc:inline /Fo"DEBUG\OBJ\\" /Fd"DEBUG\OBJ\VC140.PDB" /Gd /TP /analyze- D:\PORTFOLIOPROJECTS\LIGHTING\GAMESOLUTION\ENGINE\PROFILER.CPP
^D:\PORTFOLIOPROJECTS\LIGHTING\GAMESOLUTION\ENGINE\RANDOMNESS.CPP
/c /ID:\PORTFOLIOPROJECTS\LIGHTING\GAMESOLUTION\..\NEUMONTTOOLS\INCLUDE /ID:\PORTFOLIOPROJECTS\LIGHTING\GAMESOLUTION\..\ZEXTERNALDEPENDENCIES\GLEW\INCLUDE /ID:\PORTFOLIOPROJECTS\LIGHTING\GAMESOLUTION\..\ZEXTERNALDEPENDENCIES\QT\INCLUDE /ID:\PORTFOLIOPROJECTS\LIGHTING\GAMESOLUTION\..\GAMESOLUTION\CORE\INCLUDE /ZI /nologo /W4 /WX- /Od /Oy- /D ASSERT_OFF /D LOG_ON /D PROFILING_ON /D WIN32 /D _DEBUG /D _WINDOWS /D DEBUG_SHAPES_ON /D _USRDLL /D ENGINE_EXPORTS /D _WINDLL /D _UNICODE /D UNICODE /Gm /EHsc /RTC1 /MDd /GS /fp:precise /Zc:wchar_t /Zc:forScope /Zc:inline /Fo"DEBUG\OBJ\\" /Fd"DEBUG\OBJ\VC140.PDB" /Gd /TP /analyze- D:\PORTFOLIOPROJECTS\LIGHTING\GAMESOLUTION\ENGINE\RANDOMNESS.CPP
^D:\PORTFOLIOPROJECTS\LIGHTING\GAMESOLUTION\ENGINE\CLOCK.CPP
/c /ID:\PORTFOLIOPROJECTS\LIGHTING\GAMESOLUTION\..\NEUMONTTOOLS\INCLUDE /ID:\PORTFOLIOPROJECTS\LIGHTING\GAMESOLUTION\..\ZEXTERNALDEPENDENCIES\GLEW\INCLUDE /ID:\PORTFOLIOPROJECTS\LIGHTING\GAMESOLUTION\..\ZEXTERNALDEPENDENCIES\QT\INCLUDE /ID:\PORTFOLIOPROJECTS\LIGHTING\GAMESOLUTION\..\GAMESOLUTION\CORE\INCLUDE /ZI /nologo /W4 /WX- /Od /Oy- /D ASSERT_OFF /D LOG_ON /D PROFILING_ON /D WIN32 /D _DEBUG /D _WINDOWS /D DEBUG_SHAPES_ON /D _USRDLL /D ENGINE_EXPORTS /D _WINDLL /D _UNICODE /D UNICODE /Gm /EHsc /RTC1 /MDd /GS /fp:precise /Zc:wchar_t /Zc:forScope /Zc:inline /Fo"DEBUG\OBJ\\" /Fd"DEBUG\OBJ\VC140.PDB" /Gd /TP /analyze- D:\PORTFOLIOPROJECTS\LIGHTING\GAMESOLUTION\ENGINE\CLOCK.CPP
