^D:\C++\GAMESOLUTION\ENGINE\APATHFINDING.CPP|D:\C++\GAMESOLUTION\ENGINE\CAMERA.CPP|D:\C++\GAMESOLUTION\ENGINE\CLOCK.CPP|D:\C++\GAMESOLUTION\ENGINE\COLORNESS.CPP|D:\C++\GAMESOLUTION\ENGINE\DEBUGMENU.CPP|D:\C++\GAMESOLUTION\ENGINE\DEBUGSHAPES.CPP|D:\C++\GAMESOLUTION\ENGINE\DEBUG_SLIDER.CPP|D:\C++\GAMESOLUTION\ENGINE\DEBUG_SLIDER_MOC.CPP|D:\C++\GAMESOLUTION\ENGINE\DLLMAIN.CPP|D:\C++\GAMESOLUTION\ENGINE\ENGINE.CPP|D:\C++\GAMESOLUTION\ENGINE\GENERALWINDOWS.CPP|D:\C++\GAMESOLUTION\ENGINE\GLM\DETAIL\DUMMY.CPP|D:\C++\GAMESOLUTION\ENGINE\GLM\DETAIL\GLM.CPP|D:\C++\GAMESOLUTION\ENGINE\LOGGER.CPP|D:\C++\GAMESOLUTION\ENGINE\PARTICLE.CPP|D:\C++\GAMESOLUTION\ENGINE\PARTICLEFORCEREGISTRY.CPP|D:\C++\GAMESOLUTION\ENGINE\PROFILE.CPP|D:\C++\GAMESOLUTION\ENGINE\PROFILER.CPP|D:\C++\GAMESOLUTION\ENGINE\RANDOMNESS.CPP
D:\C++\GAMESOLUTION\ENGINE\DEBUG\OBJ\APATHFINDING.OBJ
D:\C++\GAMESOLUTION\ENGINE\DEBUG\OBJ\CAMERA.OBJ
D:\C++\GAMESOLUTION\ENGINE\DEBUG\OBJ\COLORNESS.OBJ
D:\C++\GAMESOLUTION\ENGINE\DEBUG\OBJ\DEBUGMENU.OBJ
D:\C++\GAMESOLUTION\ENGINE\DEBUG\OBJ\DEBUGSHAPES.OBJ
D:\C++\GAMESOLUTION\ENGINE\DEBUG\OBJ\DEBUG_SLIDER.OBJ
D:\C++\GAMESOLUTION\ENGINE\DEBUG\OBJ\DEBUG_SLIDER_MOC.OBJ
D:\C++\GAMESOLUTION\ENGINE\DEBUG\OBJ\DLLMAIN.OBJ
D:\C++\GAMESOLUTION\ENGINE\DEBUG\OBJ\ENGINE.OBJ
D:\C++\GAMESOLUTION\ENGINE\DEBUG\OBJ\GENERALWINDOWS.OBJ
D:\C++\GAMESOLUTION\ENGINE\DEBUG\OBJ\DUMMY.OBJ
D:\C++\GAMESOLUTION\ENGINE\DEBUG\OBJ\GLM.OBJ
D:\C++\GAMESOLUTION\ENGINE\DEBUG\OBJ\LOGGER.OBJ
D:\C++\GAMESOLUTION\ENGINE\DEBUG\OBJ\PARTICLE.OBJ
D:\C++\GAMESOLUTION\ENGINE\DEBUG\OBJ\PARTICLEFORCEREGISTRY.OBJ
D:\C++\GAMESOLUTION\ENGINE\DEBUG\OBJ\PROFILE.OBJ
D:\C++\GAMESOLUTION\ENGINE\DEBUG\OBJ\PROFILER.OBJ
D:\C++\GAMESOLUTION\ENGINE\DEBUG\OBJ\RANDOMNESS.OBJ
D:\C++\GAMESOLUTION\ENGINE\DEBUG\OBJ\CLOCK.OBJ
^D:\C++\GAMESOLUTION\ENGINE\APATHFINDING.CPP
D:\C++\GAMESOLUTION\ENGINE\DEBUG\OBJ\VC110.PDB
^D:\C++\GAMESOLUTION\ENGINE\CAMERA.CPP
D:\C++\GAMESOLUTION\ENGINE\DEBUG\OBJ\VC110.PDB
^D:\C++\GAMESOLUTION\ENGINE\COLORNESS.CPP
D:\C++\GAMESOLUTION\ENGINE\DEBUG\OBJ\VC110.PDB
^D:\C++\GAMESOLUTION\ENGINE\DEBUGMENU.CPP
D:\C++\GAMESOLUTION\ENGINE\DEBUG\OBJ\VC110.PDB
^D:\C++\GAMESOLUTION\ENGINE\DEBUGSHAPES.CPP
D:\C++\GAMESOLUTION\ENGINE\DEBUG\OBJ\VC110.PDB
^D:\C++\GAMESOLUTION\ENGINE\DEBUG_SLIDER.CPP
D:\C++\GAMESOLUTION\ENGINE\DEBUG\OBJ\VC110.PDB
^D:\C++\GAMESOLUTION\ENGINE\DEBUG_SLIDER_MOC.CPP
D:\C++\GAMESOLUTION\ENGINE\DEBUG\OBJ\VC110.PDB
^D:\C++\GAMESOLUTION\ENGINE\DLLMAIN.CPP
D:\C++\GAMESOLUTION\ENGINE\DEBUG\OBJ\VC110.PDB
^D:\C++\GAMESOLUTION\ENGINE\ENGINE.CPP
D:\C++\GAMESOLUTION\ENGINE\DEBUG\OBJ\VC110.PDB
^D:\C++\GAMESOLUTION\ENGINE\GENERALWINDOWS.CPP
D:\C++\GAMESOLUTION\ENGINE\DEBUG\OBJ\VC110.PDB
^D:\C++\GAMESOLUTION\ENGINE\GLM\DETAIL\DUMMY.CPP
D:\C++\GAMESOLUTION\ENGINE\DEBUG\OBJ\VC110.PDB
^D:\C++\GAMESOLUTION\ENGINE\GLM\DETAIL\GLM.CPP
D:\C++\GAMESOLUTION\ENGINE\DEBUG\OBJ\VC110.PDB
^D:\C++\GAMESOLUTION\ENGINE\LOGGER.CPP
D:\C++\GAMESOLUTION\ENGINE\DEBUG\OBJ\VC110.PDB
^D:\C++\GAMESOLUTION\ENGINE\PARTICLE.CPP
D:\C++\GAMESOLUTION\ENGINE\DEBUG\OBJ\VC110.PDB
^D:\C++\GAMESOLUTION\ENGINE\PARTICLEFORCEREGISTRY.CPP
D:\C++\GAMESOLUTION\ENGINE\DEBUG\OBJ\VC110.PDB
^D:\C++\GAMESOLUTION\ENGINE\PROFILE.CPP
D:\C++\GAMESOLUTION\ENGINE\DEBUG\OBJ\VC110.PDB
^D:\C++\GAMESOLUTION\ENGINE\PROFILER.CPP
D:\C++\GAMESOLUTION\ENGINE\DEBUG\OBJ\VC110.PDB
^D:\C++\GAMESOLUTION\ENGINE\RANDOMNESS.CPP
D:\C++\GAMESOLUTION\ENGINE\DEBUG\OBJ\VC110.PDB
^D:\C++\GAMESOLUTION\ENGINE\CLOCK.CPP
D:\C++\GAMESOLUTION\ENGINE\DEBUG\OBJ\VC110.PDB
